Multinomial Data (ELMR Chapter 7)
…
Suppose the length of \(\mathbf{x}_i\) is \(p\), then the multinomial-logit model consumes \(p(J-1)\) parameters.

We may estimate the parameters using MLE and the standard methods for inference.

1996 election data

Consider an example of the 1996 American National Election Study. We consider only the education level and income group of the respondents. We will study how party identification of the respondent (Democrat, Independent or Republican) depends on predictors age, education level, and income.

(nes96 <- as_tibble(nes96))

## # A tibble: 944 x 10
##    popul TVnews selfLR ClinLR DoleLR PID       age educ  income   vote   
##    <int>  <int> <ord>  <ord>  <ord>  <ord>   <int> <ord> <ord>    <fct>  
##  1     0      7 extCon extLib Con    strRep     36 HS    $3Kminus Dole   
##  2   190      1 sliLib sliLib sliCon weakDem    20 Coll  $3Kminus Clinton
##  3    31      7 Lib    Lib    Con    weakDem    24 BAdeg $3Kminus Clinton
##  4    83      4 sliLib Mod    sliCon weakDem    28 BAdeg $3Kminus Clinton
##  5   640      7 sliCon Con    Mod    strDem     68 BAdeg $3Kminus Clinton
##  6   110      3 sliLib Mod    Con    weakDem    21 Coll  $3Kminus Clinton
##  7   100      7 sliCon Con    Mod    weakDem    77 Coll  $3Kminus Clinton
##  8    31      1 sliCon Mod    sliCon indRep     21 Coll  $3Kminus Clinton
##  9   180      7 Mod    Con    sliLib indind     31 Coll  $3Kminus Clinton
## 10  2800      0 sliLib sliLib extCon strDem     39 HS    $3Kminus Clinton
## # … with 934 more rows
…
Graphical summaries.

How does party identification changes with education level?

nes96 %>%
  count(educ, sPID) %>%
  group_by(educ) %>%
  mutate(prop = prop.table(n)) %>%
  print(width = Inf) %>%
  ggplot() +
  geom_line(mapping = aes(x = educ, y = prop, group = sPID, color = sPID)) + 
  scale_color_manual(values = c("blue", "green", "red")) + 
  labs(x = "Education", y = "Proportion")

## # A tibble: 21 x 4
## # Groups:   educ [7]
##    educ   sPID            n   prop
##    <ord>  <ord>       <int>  <dbl>
##  1 MS     Democrat        9 0.692 
##  2 MS     Independent     3 0.231 
##  3 MS     Republican      1 0.0769
##  4 HSdrop Democrat       29 0.558 
##  5 HSdrop Independent    14 0.269 
##  6 HSdrop Republican      9 0.173 
##  7 HS     Democrat      108 0.435 
##  8 HS     Independent    63 0.254 
##  9 HS     Republican     77 0.310 
## 10 Coll   Democrat       74 0.396 
## # … with 11 more rows
…
How does party identification changes with income level?

nes96 %>%
  count(income, sPID) %>%
  group_by(income) %>%
  mutate(prop = prop.table(n)) %>%
  print(width = Inf) %>%
  ggplot() +
  geom_line(mapping = aes(x = income, y = prop, group = sPID, color = sPID)) + 
  scale_color_manual(values = c("blue", "green", "red")) + 
  labs(x = "Income", y = "Proportion") + 
  theme(axis.text.x = element_text(angle = 90))

## # A tibble: 72 x 4
## # Groups:   income [24]
##    income   sPID            n   prop
##    <ord>    <ord>       <int>  <dbl>
##  1 $3Kminus Democrat       13 0.684 
##  2 $3Kminus Independent     3 0.158 
##  3 $3Kminus Republican      3 0.158 
##  4 $3K-$5K  Democrat        7 0.583 
##  5 $3K-$5K  Independent     4 0.333 
##  6 $3K-$5K  Republican      1 0.0833
##  7 $5K-$7K  Democrat        9 0.529 
##  8 $5K-$7K  Independent     3 0.176 
##  9 $5K-$7K  Republican      5 0.294 
## 10 $7K-$9K  Democrat       11 0.579 
## # … with 62 more rows
…
How does party identification changes with age?

nes96 %>%
  mutate(age_grp = cut(age, breaks = seq(from = 10, to = 100, by = 10))) %>%
  count(age_grp, sPID) %>%
  group_by(age_grp) %>%
  mutate(prop = prop.table(n)) %>%
  print(width = Inf) %>%
  ggplot() +
  geom_line(mapping = aes(x = age_grp, y = prop, group = sPID, color = sPID)) + 
  scale_color_manual(values = c("blue", "green", "red")) + 
  labs(x = "Age", y = "Proportion") + 
  theme(axis.text.x = element_text(angle = 90))

## # A tibble: 26 x 4
## # Groups:   age_grp [9]
##    age_grp sPID            n  prop
##    <fct>   <ord>       <int> <dbl>
##  1 (10,20] Democrat        3 0.333
##  2 (10,20] Independent     2 0.222
##  3 (10,20] Republican      4 0.444
##  4 (20,30] Democrat       60 0.438
##  5 (20,30] Independent    37 0.270
##  6 (20,30] Republican     40 0.292
##  7 (30,40] Democrat       87 0.348
##  8 (30,40] Independent    65 0.26 
##  9 (30,40] Republican     98 0.392
## 10 (40,50] Democrat       89 0.441
## # … with 16 more rows
…
