Review of Linear Regression (ELMR Chapter 1)
…
library(faraway)

faraway package contains the datasets in the ELMR book.

GA 2000 US Presidential Election Data

The gavote data contains the voting data of GA in the 2000 presidential election. It is available as a dataframe. We convert it into a tibble for easy handling by tidyverse.

gavote <- gavote %>% 
  as_tibble(rownames = "county") %>%
  print(width = Inf)

## # A tibble: 159 x 11
##    county   equip econ   perAA rural atlanta     gore  bush other votes ballots
##    <chr>    <fct> <fct>  <dbl> <fct> <fct>      <int> <int> <int> <int>   <int>
##  1 APPLING  LEVER poor   0.182 rural notAtlanta  2093  3940    66  6099    6617
##  2 ATKINSON LEVER poor   0.23  rural notAtlanta   821  1228    22  2071    2149
##  3 BACON    LEVER poor   0.131 rural notAtlanta   956  2010    29  2995    3347
##  4 BAKER    OS-CC poor   0.476 rural notAtlanta   893   615    11  1519    1607
##  5 BALDWIN  LEVER middle 0.359 rural notAtlanta  5893  6041   192 12126   12785
##  6 BANKS    LEVER middle 0.024 rural notAtlanta  1220  3202   111  4533    4773
##  7 BARROW   OS-CC middle 0.079 urban notAtlanta  3657  7925   520 12102   12522
##  8 BARTOW   OS-PC middle 0.079 urban Atlanta     7508 14720   552 22780   23735
##  9 BEN.HILL OS-PC poor   0.282 rural notAtlanta  2234  2381    46  4661    5741
## 10 BERRIEN  OS-CC poor   0.107 rural notAtlanta  1640  2718    52  4410    4475
## # … with 149 more rows
…
Each row is a county in GA.

Number of votes can be smaller than the number of ballots because a vote is not recorded if (1) the person fails to vote for President, (2) votes for more than one candidate, or (3) the equipment fails to record the vote.

We are interested in the undercount, which is defined as (ballots - votes) / ballots. Does it depend on the type of voting machine equip, economy econ, percentage of African Americans perAA, whether the county is rural or urban rural, or whether the county is part of Altanla metropolitan area atlanta.

Let’s create a new variable undercount

(gavote <- gavote %>%
  mutate(undercount = (ballots - votes) / ballots))

## # A tibble: 159 x 11
##    equip econ   perAA rural atlanta    gore  bush other votes ballots undercount
##    <fct> <fct>  <dbl> <fct> <fct>     <int> <int> <int> <int>   <int>      <dbl>
##  1 LEVER poor   0.182 rural notAtlan…  2093  3940    66  6099    6617     0.0783
##  2 LEVER poor   0.23  rural notAtlan…   821  1228    22  2071    2149     0.0363
##  3 LEVER poor   0.131 rural notAtlan…   956  2010    29  2995    3347     0.105 
##  4 OS-CC poor   0.476 rural notAtlan…   893   615    11  1519    1607     0.0548
##  5 LEVER middle 0.359 rural notAtlan…  5893  6041   192 12126   12785     0.0515
##  6 LEVER middle 0.024 rural notAtlan…  1220  3202   111  4533    4773     0.0503
##  7 OS-CC middle 0.079 urban notAtlan…  3657  7925   520 12102   12522     0.0335
##  8 OS-PC middle 0.079 urban Atlanta    7508 14720   552 22780   23735     0.0402
##  9 OS-PC poor   0.282 rural notAtlan…  2234  2381    46  4661    5741     0.188 
## 10 OS-CC poor   0.107 rural notAtlan…  1640  2718    52  4410    4475     0.0145
## # … with 149 more rows
…
For factor rural, we found it has the same name as one level in this factor. To avoid confusion, let’s rename it to usage.

We also want to standardize the counts gore and bush according to the total votes.

(gavote <- gavote %>%
  rename(usage = rural) %>%
  mutate(pergore = gore / votes, perbush = bush / votes)) %>%
  print(width = Inf)

## # A tibble: 159 x 13
##    equip econ   perAA usage atlanta     gore  bush other votes ballots
##    <fct> <fct>  <dbl> <fct> <fct>      <int> <int> <int> <int>   <int>
##  1 LEVER poor   0.182 rural notAtlanta  2093  3940    66  6099    6617
##  2 LEVER poor   0.23  rural notAtlanta   821  1228    22  2071    2149
##  3 LEVER poor   0.131 rural notAtlanta   956  2010    29  2995    3347
##  4 OS-CC poor   0.476 rural notAtlanta   893   615    11  1519    1607
##  5 LEVER middle 0.359 rural notAtlanta  5893  6041   192 12126   12785
##  6 LEVER middle 0.024 rural notAtlanta  1220  3202   111  4533    4773
##  7 OS-CC middle 0.079 urban notAtlanta  3657  7925   520 12102   12522
##  8 OS-PC middle 0.079 urban Atlanta     7508 14720   552 22780   23735
##  9 OS-PC poor   0.282 rural notAtlanta  2234  2381    46  4661    5741
## 10 OS-CC poor   0.107 rural notAtlanta  1640  2718    52  4410    4475
##    undercount pergore perbush
##         <dbl>   <dbl>   <dbl>
##  1     0.0783   0.343   0.646
##  2     0.0363   0.396   0.593
##  3     0.105    0.319   0.671
##  4     0.0548   0.588   0.405
##  5     0.0515   0.486   0.498
##  6     0.0503   0.269   0.706
##  7     0.0335   0.302   0.655
##  8     0.0402   0.330   0.646
##  9     0.188    0.479   0.511
## 10     0.0145   0.372   0.616
## # … with 149 more rows
…
lmodsum$adj.r.squared

## [1] 0.04094872

A model with both quantitative and qualitative predictors

Now we also want to include factors equip and usage, and interaction between pergore and usage into the model.

Before that, we first center the pergore and perAA variables.

gavote <- gavote %>%
   mutate(cpergore = pergore - mean(pergore), cperAA = perAA - mean(perAA)) %>%
   print(width = Inf)

## # A tibble: 159 x 15
##    equip econ   perAA usage atlanta     gore  bush other votes ballots
##    <fct> <fct>  <dbl> <fct> <fct>      <int> <int> <int> <int>   <int>
##  1 LEVER poor   0.182 rural notAtlanta  2093  3940    66  6099    6617
##  2 LEVER poor   0.23  rural notAtlanta   821  1228    22  2071    2149
##  3 LEVER poor   0.131 rural notAtlanta   956  2010    29  2995    3347
##  4 OS-CC poor   0.476 rural notAtlanta   893   615    11  1519    1607
##  5 LEVER middle 0.359 rural notAtlanta  5893  6041   192 12126   12785
##  6 LEVER middle 0.024 rural notAtlanta  1220  3202   111  4533    4773
##  7 OS-CC middle 0.079 urban notAtlanta  3657  7925   520 12102   12522
##  8 OS-PC middle 0.079 urban Atlanta     7508 14720   552 22780   23735
##  9 OS-PC poor   0.282 rural notAtlanta  2234  2381    46  4661    5741
## 10 OS-CC poor   0.107 rural notAtlanta  1640  2718    52  4410    4475
##    undercount pergore perbush cpergore  cperAA
##         <dbl>   <dbl>   <dbl>    <dbl>   <dbl>
##  1     0.0783   0.343   0.646  -0.0652 -0.0610
##  2     0.0363   0.396   0.593  -0.0119 -0.0130
##  3     0.105    0.319   0.671  -0.0891 -0.112 
##  4     0.0548   0.588   0.405   0.180   0.233 
##  5     0.0515   0.486   0.498   0.0777  0.116 
##  6     0.0503   0.269   0.706  -0.139  -0.219 
##  7     0.0335   0.302   0.655  -0.106  -0.164 
##  8     0.0402   0.330   0.646  -0.0787 -0.164 
##  9     0.188    0.479   0.511   0.0710  0.0390
## 10     0.0145   0.372   0.616  -0.0364 -0.136 
## # … with 149 more rows
…
