Nonparametric Regression (ELMR Chapter 14)
…
Parametric approach assumes that \(f(x)\) belongs to a parametric family \(f(x \mid \boldsymbol{\beta})\). Examples are \[\begin{eqnarray*}
f(x \mid \boldsymbol{\beta}) &=& \beta_0 + \beta_1 x \\
f(x \mid \boldsymbol{\beta}) &=& \beta_0 + \beta_1 x + \beta_2 x^2 \\
f(x \mid \boldsymbol{\beta}) &=& \beta_0 + \beta_1 x^{\beta_2}.
\end{eqnarray*}\]

Nonparametric approach assumes \(f\) is from some smooth family of functions.

Three datasets.

exa: \(f(x) = \sin^3 (2 \pi x^3)\).

exa <- as_tibble(exa) %>% print()

## # A tibble: 256 x 3
##          x       y     m
##      <dbl>   <dbl> <dbl>
##  1 0.00480 -0.0339     0
##  2 0.0086   0.165      0
##  3 0.0117   0.0245     0
##  4 0.017    0.178      0
##  5 0.0261  -0.347      0
##  6 0.0299  -0.755      0
##  7 0.0307   0.355      0
##  8 0.0315   0.0401     0
##  9 0.0331   0.106      0
## 10 0.034    0.122      0
## # … with 246 more rows
…
- `exb`: $f(x) = 0$. 

exb <- as_tibble(exb) %>% print()

## # A tibble: 50 x 3
##        x       y     m
##    <dbl>   <dbl> <dbl>
##  1  0.02  0.781      0
##  2  0.04  1.64       0
##  3  0.06 -0.363      0
##  4  0.08 -0.0540     0
##  5  0.1  -0.804      0
##  6  0.12  0.907      0
##  7  0.14 -0.843      0
##  8  0.16 -0.229      0
##  9  0.18 -0.499      0
## 10  0.2   1.20       0
## # … with 40 more rows
…
- `faithful`: data on Old Faithful geyser in Yellowstone National Park.

faithful <- as_tibble(faithful) %>% print()

## # A tibble: 272 x 2
##    eruptions waiting
##        <dbl>   <dbl>
##  1      3.6       79
##  2      1.8       54
##  3      3.33      74
##  4      2.28      62
##  5      4.53      85
##  6      2.88      55
##  7      4.7       88
##  8      3.6       85
##  9      1.95      51
## 10      4.35      85
## # … with 262 more rows
…
