Repeated Measures and Longitudinal Data (ELMR Chapter 11)
…
## ── Conflicts ─────────────────────────────────────────────────────── tidyverse_conflicts() ──
## x dplyr::filter() masks stats::filter()
## x dplyr::lag()    masks stats::lag()

library(faraway)

Longitudinal data - PSID data set

psid (Panel Study of Income Dynamics) data records the income of 85 individuals, who were aged 25-39 in 1968 and had complete data for at least 11 of the years between 1968 and 1990.

psid <- as_tibble(psid) %>%
  print(n = 30)

## # A tibble: 1,661 x 6
##      age  educ sex   income  year person
##    <int> <int> <fct>  <int> <int>  <int>
##  1    31    12 M       6000    68      1
##  2    31    12 M       5300    69      1
##  3    31    12 M       5200    70      1
##  4    31    12 M       6900    71      1
##  5    31    12 M       7500    72      1
##  6    31    12 M       8000    73      1
##  7    31    12 M       8000    74      1
##  8    31    12 M       9600    75      1
##  9    31    12 M       9000    76      1
## 10    31    12 M       9000    77      1
## 11    31    12 M      23000    78      1
## 12    31    12 M      22000    79      1
## 13    31    12 M       8000    80      1
## 14    31    12 M      10000    81      1
## 15    31    12 M      21800    82      1
## 16    31    12 M      19000    83      1
## 17    29    16 M       7500    68      2
## 18    29    16 M       7300    69      2
## 19    29    16 M       9250    70      2
## 20    29    16 M      10300    71      2
## 21    29    16 M      10900    72      2
## 22    29    16 M      11900    73      2
## 23    29    16 M      13000    74      2
## 24    29    16 M      12900    75      2
## 25    29    16 M      19900    76      2
## 26    29    16 M      18900    77      2
## 27    29    16 M      19100    78      2
## 28    29    16 M      20300    79      2
## 29    29    16 M      31600    80      2
## 30    29    16 M      16600    81      2
## # … with 1,631 more rows
…
