Binary Response (ELMR Chapter 2)
…
We convert the dataframe into a tibble for compatibility with tidyverse.

wcgs <- wcgs %>% 
  as_tibble() %>%
  print(width = Inf)

## # A tibble: 3,154 x 13
##      age height weight   sdp   dbp  chol behave  cigs dibep chd   typechd 
##    <int>  <int>  <int> <int> <int> <int> <fct>  <int> <fct> <fct> <fct>   
##  1    49     73    150   110    76   225 A2        25 B     no    none    
##  2    42     70    160   154    84   177 A2        20 B     no    none    
##  3    42     69    160   110    78   181 B3         0 A     no    none    
##  4    41     68    152   124    78   132 B4        20 A     no    none    
##  5    59     70    150   144    86   255 B3        20 A     yes   infdeath
##  6    44     72    204   150    90   182 B4         0 A     no    none    
##  7    44     72    164   130    84   155 B4         0 A     no    none    
##  8    40     71    150   138    60   140 A2         0 B     no    none    
##  9    43     72    190   146    76   149 B3        25 A     no    none    
## 10    42     70    175   132    90   325 A2         0 B     no    none    
##    timechd arcus  
##      <int> <fct>  
##  1    1664 absent 
##  2    3071 present
##  3    3071 absent 
##  4    3064 absent 
##  5    1885 present
##  6    3102 absent 
##  7    3074 absent 
##  8    3071 absent 
##  9    3064 absent 
## 10    1032 present
## # … with 3,144 more rows
…
when \(\lambda = 0\), the regression coefficients are same as those from regular logistic regression.

If we vary \(\lambda\) from 0 to larger values, we will obtain intermediate models with lesser and lesser preditors. This way we are achieving continuous model selection.

For details of glmnet package, see the vignette at https://web.stanford.edu/~hastie/glmnet/glmnet_alpha.html

How do we choose \(\lambda\), which determines the model size? One natural idea is to split the data into a training set and a validation set. The training set is used to fit the logistic regression at different \(\lambda\) values. Then the validation set is used to evaluate and compare the performance of different models. We will choose the model that gives the best performance on the validation set.

First let’s remove cases with missing values

(wcgs <- wcgs %>% 
  select(-c(behave, typechd, timechd)) %>%
  drop_na())

## # A tibble: 3,140 x 11
##      age height weight   sdp   dbp  chol  cigs dibep chd   arcus     bmi
##    <int>  <int>  <int> <int> <int> <int> <int> <fct> <fct> <fct>   <dbl>
##  1    49     73    150   110    76   225    25 B     no    absent  1445.
##  2    42     70    160   154    84   177    20 B     no    present 1607.
##  3    42     69    160   110    78   181     0 A     no    absent  1630.
##  4    41     68    152   124    78   132    20 A     no    absent  1571.
##  5    59     70    150   144    86   255    20 A     yes   present 1506.
##  6    44     72    204   150    90   182     0 A     no    absent  1992.
##  7    44     72    164   130    84   155     0 A     no    absent  1601.
##  8    40     71    150   138    60   140     0 B     no    absent  1485.
##  9    43     72    190   146    76   149    25 A     no    absent  1855.
## 10    42     70    175   132    90   325     0 B     no    present 1758.
## # … with 3,130 more rows
…
## The following object is masked from 'package:purrr':
## 
##     lift

# set seed for reproducibility
set.seed(200)

# list = FALSE, request result to be in a matrix (of row position) not a list
training_samples <- wcgs$chd %>%
  createDataPartition(p = 0.8, list = FALSE)
(train_data <- wcgs[training_samples, ])

## # A tibble: 2,512 x 11
##      age height weight   sdp   dbp  chol  cigs dibep chd   arcus     bmi
##    <int>  <int>  <int> <int> <int> <int> <int> <fct> <fct> <fct>   <dbl>
##  1    42     70    160   154    84   177    20 B     no    present 1607.
##  2    42     69    160   110    78   181     0 A     no    absent  1630.
##  3    41     68    152   124    78   132    20 A     no    absent  1571.
##  4    59     70    150   144    86   255    20 A     yes   present 1506.
##  5    44     72    204   150    90   182     0 A     no    absent  1992.
##  6    44     72    164   130    84   155     0 A     no    absent  1601.
##  7    40     71    150   138    60   140     0 B     no    absent  1485.
##  8    43     72    190   146    76   149    25 A     no    absent  1855.
##  9    42     70    175   132    90   325     0 B     no    present 1758.
## 10    53     69    167   146    94   223    25 B     no    absent  1701.
## # … with 2,502 more rows

(val_data <- wcgs[-training_samples, ])

## # A tibble: 628 x 11
##      age height weight   sdp   dbp  chol  cigs dibep chd   arcus     bmi
##    <int>  <int>  <int> <int> <int> <int> <int> <fct> <fct> <fct>   <dbl>
##  1    49     73    150   110    76   225    25 B     no    absent  1445.
##  2    44     75    215   132    90   176     0 B     no    absent  2015.
##  3    40     71    160   114    82   202    23 B     no    absent  1584.
##  4    54     72    185   130    80   274    40 B     yes   present 1806.
##  5    47     70    145   120    80   225    25 A     no    present 1456.
##  6    48     70    167   130    86   180    40 B     no    absent  1677.
##  7    44     67    160   124    80   231     0 B     no    present 1679.
##  8    44     73    208   130    90   162     0 A     no    present 2003.
##  9    40     63    125   110    76   198     0 A     no    absent  1395.
## 10    55     70    175   120    78   215     0 A     no    absent  1758.
## # … with 618 more rows
…
