Mixed Effects Models for Nonnormal Responses (ELMR Chapter 13)
…
Binary response example

ctsib data in EMLR studies the balance of 40 individuals.

Response: stability (1 = stable, 0 = instable).

Predictors: sex (binary), age (continuous), height (continuous), surface (binary, norm or foam), vision (factor, open or closed or dome).

Each subject is tested twice on a combination of surface and vision. 12 measurements per subject.

ctsib <- as_tibble(ctsib) %>%
  mutate(stable = ifelse(CTSIB == 1, 1, 0)) %>%
  print(n = 24)

## # A tibble: 480 x 9
##    Subject Sex     Age Height Weight Surface Vision CTSIB stable
##      <int> <fct> <int>  <dbl>  <dbl> <fct>   <fct>  <int>  <dbl>
##  1       1 male     22    176   68.2 norm    open       1      1
##  2       1 male     22    176   68.2 norm    open       1      1
##  3       1 male     22    176   68.2 norm    closed     2      0
##  4       1 male     22    176   68.2 norm    closed     2      0
##  5       1 male     22    176   68.2 norm    dome       1      1
##  6       1 male     22    176   68.2 norm    dome       2      0
##  7       1 male     22    176   68.2 foam    open       2      0
##  8       1 male     22    176   68.2 foam    open       2      0
##  9       1 male     22    176   68.2 foam    closed     2      0
## 10       1 male     22    176   68.2 foam    closed     2      0
## 11       1 male     22    176   68.2 foam    dome       2      0
## 12       1 male     22    176   68.2 foam    dome       2      0
## 13       2 male     22    181   67.6 norm    open       1      1
## 14       2 male     22    181   67.6 norm    open       1      1
## 15       2 male     22    181   67.6 norm    closed     2      0
## 16       2 male     22    181   67.6 norm    closed     2      0
## 17       2 male     22    181   67.6 norm    dome       2      0
## 18       2 male     22    181   67.6 norm    dome       2      0
## 19       2 male     22    181   67.6 foam    open       2      0
## 20       2 male     22    181   67.6 foam    open       2      0
## 21       2 male     22    181   67.6 foam    closed     3      0
## 22       2 male     22    181   67.6 foam    closed     3      0
## 23       2 male     22    181   67.6 foam    dome       3      0
## 24       2 male     22    181   67.6 foam    dome       3      0
## # … with 456 more rows
…
Count response example

epilepsy data in ELMR.

Response: seizures (number of seizures of each epilepsy patient).

Variables: treat (binary, 1 = treatment or 0 = control group), expind (binary, 0 = baseline or 1 = experiment phase), timeadj (length of phase).

epilepsy <- as_tibble(epilepsy) %>% 
  mutate(period = rep(0:4, 59), 
         drug   = factor(c("placebo", "treatment"))[treat + 1],
         phase  = factor(c("baseline", "experiment"))[expind + 1]) %>%
  print()

## # A tibble: 295 x 9
##    seizures    id treat expind timeadj   age period drug    phase     
##       <dbl> <int> <dbl>  <dbl>   <dbl> <dbl>  <int> <fct>   <fct>     
##  1       11     1     0      0       8    31      0 placebo baseline  
##  2        5     1     0      1       2    31      1 placebo experiment
##  3        3     1     0      1       2    31      2 placebo experiment
##  4        3     1     0      1       2    31      3 placebo experiment
##  5        3     1     0      1       2    31      4 placebo experiment
##  6       11     2     0      0       8    30      0 placebo baseline  
##  7        3     2     0      1       2    30      1 placebo experiment
##  8        5     2     0      1       2    30      2 placebo experiment
##  9        3     2     0      1       2    30      3 placebo experiment
## 10        3     2     0      1       2    30      4 placebo experiment
## # … with 285 more rows
…
