Variations on Logistic Regression (ELMR Chapter 4)
…
In a 1:M design, we match \(M\) controls to each case. Suppose we have \(n\) matched sets and we take \(i=0\) to represent the case and \(i=1,\ldots,M\) to represent the controls. We propose a logistic regression \[
\text{logit}(p_j(\mathbf{x}_{ij})) = \alpha_j + \mathbf{x}_{ij}^T \boldsymbol{\beta},
\] where \(\alpha_j\) models the effect of the confounding variables in the \(j\)-th matched set.

Given a matched set \(j\) of \(M+1\) subjects known to have one case and \(M\) controls, the conditional probability of the observed outcome, or, in other words, that subject \(i=0\) is the case and the rest are controls is \[
\frac{\exp \mathbf{x}_{0j}^T \boldsymbol{\beta}}{\sum_{i=0}^M \exp \mathbf{x}_{ij}^T \boldsymbol{\beta}}.
\] \(\alpha_j\) conveniently cancels out in this expression. We can form the conditional likelihood function \[
L(\boldsymbol{\beta}) = \prod_{j=1}^n \frac{1}{1 + \sum_{i=0}^M \exp (\mathbf{x}_{ij} - \mathbf{x}_{0j})^T \boldsymbol{\beta}},
\] which is identical to that from a proportional hazards mdoel.

The amlxray data concerns the x-ray exposure and childhood acute myeloid leukemia. The sets are matched on age, race, and county of residence.

(amlxray <- as_tibble(amlxray))

## # A tibble: 238 x 11
##    ID    disease Sex   downs   age Mray  MupRay MlowRay Fray  Cray  CnRay
##    <fct>   <dbl> <fct> <fct> <int> <fct> <fct>  <fct>   <fct> <fct> <ord>
##  1 7004        1 F     no        0 no    no     no      no    no    1    
##  2 7004        0 F     no        0 no    no     no      no    no    1    
##  3 7006        1 M     no        6 no    no     no      no    yes   3    
##  4 7006        0 M     no        6 no    no     no      no    yes   2    
##  5 7009        1 F     no        8 no    no     no      no    no    1    
##  6 7009        0 F     no        8 no    no     no      no    no    1    
##  7 7010        1 M     yes       1 no    no     no      no    no    1    
##  8 7010        0 M     no        1 no    no     no      no    no    1    
##  9 7013        1 M     no        4 yes   no     yes     no    no    1    
## 10 7013        0 M     no        4 no    no     no      no    yes   2    
## # … with 228 more rows
…
